2015-10-07 21:27:00 WARN  AbstractJDBCDataModel:193 - You are not using ConnectionPoolDataSource. Make sure your DataSource pools connections to the database itself, or database performance will be severely reduced.
2015-10-07 21:27:00 INFO  AbstractDifferenceRecommenderEvaluator:105 - Beginning evaluation using 0.7 of org.apache.mahout.cf.taste.impl.model.jdbc.PostgreSQLJDBCDataModel@4ca8195f
2015-10-07 21:35:16 WARN  AbstractJDBCDataModel:193 - You are not using ConnectionPoolDataSource. Make sure your DataSource pools connections to the database itself, or database performance will be severely reduced.
2015-10-07 21:35:16 INFO  AbstractDifferenceRecommenderEvaluator:105 - Beginning evaluation using 0.7 of org.apache.mahout.cf.taste.impl.model.jdbc.PostgreSQLJDBCDataModel@65e579dc
2015-10-07 21:41:43 INFO  GenericDataModel:110 - Processed 10000 users
2015-10-07 21:41:43 INFO  GenericDataModel:110 - Processed 20000 users
2015-10-07 21:41:43 INFO  GenericDataModel:110 - Processed 30000 users
2015-10-07 21:41:43 INFO  GenericDataModel:110 - Processed 40000 users
2015-10-07 21:41:43 INFO  GenericDataModel:110 - Processed 50000 users
2015-10-07 21:41:44 INFO  GenericDataModel:110 - Processed 60000 users
2015-10-07 21:41:44 INFO  GenericDataModel:110 - Processed 70000 users
2015-10-07 21:41:44 INFO  GenericDataModel:110 - Processed 80000 users
2015-10-07 21:41:45 INFO  GenericDataModel:110 - Processed 90000 users
2015-10-07 21:41:45 INFO  GenericDataModel:110 - Processed 100000 users
2015-10-07 21:41:45 INFO  GenericDataModel:110 - Processed 110000 users
2015-10-07 21:41:45 INFO  GenericDataModel:110 - Processed 120000 users
2015-10-07 21:41:45 INFO  GenericDataModel:110 - Processed 130000 users
2015-10-07 21:41:45 INFO  GenericDataModel:113 - Processed 130706 users
2015-10-07 21:41:46 INFO  AbstractDifferenceRecommenderEvaluator:181 - Beginning evaluation of 111869 users
2015-10-07 21:41:46 INFO  AbstractDifferenceRecommenderEvaluator:194 - Starting timing of 111869 tasks in 8 threads
2015-10-07 21:41:55 INFO  StatsCallable:55 - Average time per recommendation: 4283ms
2015-10-07 21:41:55 INFO  StatsCallable:58 - Approximate memory used: 188MB / 260MB
2015-10-07 21:41:55 INFO  StatsCallable:59 - Unable to recommend in 369 cases
2015-10-07 22:19:52 INFO  StatsCallable:55 - Average time per recommendation: 17256ms
2015-10-07 22:19:52 INFO  StatsCallable:58 - Approximate memory used: 243MB / 749MB
2015-10-07 22:19:52 INFO  StatsCallable:59 - Unable to recommend in 67564 cases
